2000 1000 182
3000 2000 217
4000 3000 238
5000 4000 215
6000 5000 236
7000 6000 262
8000 7000 252
9000 8000 247
10000 9000 260
11000 10000 268
12000 11000 250
13000 12000 263
14000 13000 276
15000 14000 271
16000 15000 271
17000 16000 266
18000 17000 279
19000 18000 261
20000 19000 274
21000 20000 256
22000 21000 269
23000 22000 269
24000 23000 282
25000 24000 264
26000 25000 264
27000 26000 308
28000 27000 259
29000 28000 259
30000 29000 272
31000 30000 272
32000 31000 285
33000 32000 267
34000 33000 267
35000 34000 311
36000 35000 324
37000 36000 249
38000 37000 306
39000 38000 244
40000 39000 306
41000 40000 288
42000 41000 257
43000 42000 288
44000 43000 270
45000 44000 270
46000 45000 314
47000 46000 283
48000 47000 314
49000 48000 296
50000 49000 296
51000 50000 278
52000 51000 309
53000 52000 340
54000 53000 322
55000 54000 260
56000 55000 260
57000 56000 322
58000 57000 304
59000 58000 273
60000 59000 304
61000 60000 335
62000 61000 317
63000 62000 286
64000 63000 330
65000 64000 299
66000 65000 268
67000 66000 268
68000 67000 312
69000 68000 312
70000 69000 299
71000 70000 312
72000 71000 325
73000 72000 263
74000 73000 294
75000 74000 325
76000 75000 307
77000 76000 307
78000 77000 351
79000 78000 338
80000 79000 307
81000 80000 320
82000 81000 320
83000 82000 320
84000 83000 289
85000 84000 320
86000 85000 302
87000 86000 302
88000 87000 333
89000 88000 333
90000 89000 315
91000 90000 315
92000 91000 333
93000 92000 315
94000 93000 284
95000 94000 315
96000 95000 328
97000 96000 297
98000 97000 297
99000 98000 284
100000 99000 328
101000 100000 341
102000 101000 310
103000 102000 310
104000 103000 248
105000 104000 310
106000 105000 341
107000 106000 354
108000 107000 292
109000 108000 279
110000 109000 310
111000 110000 292
112000 111000 323
113000 112000 323
114000 113000 292
115000 114000 305
116000 115000 349
117000 116000 305
118000 117000 305
119000 118000 336
120000 119000 305
121000 120000 318
122000 121000 336
123000 122000 318
124000 123000 331
125000 124000 287
126000 125000 318
127000 126000 331
128000 127000 287
129000 128000 331
130000 129000 344
131000 130000 331
132000 131000 300
133000 132000 331
134000 133000 313
135000 134000 300
136000 135000 344
137000 136000 313
138000 137000 331
139000 138000 313
140000 139000 313
141000 140000 344
142000 141000 326
143000 142000 375
144000 143000 282
145000 144000 326
146000 145000 295
147000 146000 357
148000 147000 295
149000 148000 326
150000 149000 326
151000 150000 370
152000 151000 295
153000 152000 308
154000 153000 308
155000 154000 352
156000 155000 308
157000 156000 383
158000 157000 339
159000 158000 321
160000 159000 352
161000 160000 370
162000 161000 290
163000 162000 339
164000 163000 321
165000 164000 334
166000 165000 321
167000 166000 352
168000 167000 321
169000 168000 321
170000 169000 334
171000 170000 290
172000 171000 334
173000 172000 303
174000 173000 347
175000 174000 334
176000 175000 272
177000 176000 334
178000 177000 334
179000 178000 347
180000 179000 303
181000 180000 365
182000 181000 316
183000 182000 334
184000 183000 254
185000 184000 316
186000 185000 329
187000 186000 347
188000 187000 329
189000 188000 316
190000 189000 360
191000 190000 329
192000 191000 329
193000 192000 347
194000 193000 329
195000 194000 342
196000 195000 360
197000 196000 298
198000 197000 285
199000 198000 329
200000 199000 329
201000 200000 342
202000 201000 311
203000 202000 342
204000 203000 311
205000 204000 311
206000 205000 355
207000 206000 373
208000 207000 311
209000 208000 311
210000 209000 311
211000 210000 342
212000 211000 355
213000 212000 355
214000 213000 373
215000 214000 293
216000 215000 280
217000 216000 386
218000 217000 324
219000 218000 324
220000 219000 355
221000 220000 324
222000 221000 355
223000 222000 324
224000 223000 324
225000 224000 324
226000 225000 368
227000 226000 368
228000 227000 306
229000 228000 355
230000 229000 306
231000 230000 443
232000 231000 350
233000 232000 337
234000 233000 368
235000 234000 381
236000 235000 306
237000 236000 337
238000 237000 350
239000 238000 306
240000 239000 350
241000 240000 368
242000 241000 275
243000 242000 319
244000 243000 337
245000 244000 275
246000 245000 319
247000 246000 332
248000 247000 350
249000 248000 288
250000 249000 350
251000 250000 332
252000 251000 319
253000 252000 319
254000 253000 332
255000 254000 363
256000 255000 288
257000 256000 332
258000 257000 345
259000 258000 301
260000 259000 345
261000 260000 332
262000 261000 332
263000 262000 301
264000 263000 407
265000 264000 332
266000 265000 332
267000 266000 314
268000 267000 345
269000 268000 270
270000 269000 345
271000 270000 407
272000 271000 283
273000 272000 314
274000 273000 358
275000 274000 332
276000 275000 345
277000 276000 314
278000 277000 389
279000 278000 345
280000 279000 314
281000 280000 345
282000 281000 358
283000 282000 314
284000 283000 358
285000 284000 358
286000 285000 376
287000 286000 314
288000 287000 327
289000 288000 389
290000 289000 345
291000 290000 327
292000 291000 327
293000 292000 340
294000 293000 358
295000 294000 296
296000 295000 358
297000 296000 327
298000 297000 327
299000 298000 371
300000 299000 327
301000 300000 371
302000 301000 296
303000 302000 340
304000 303000 340
305000 304000 340
306000 305000 265
307000 306000 309
308000 307000 309
309000 308000 371
310000 309000 340
311000 310000 371
312000 311000 309
313000 312000 384
314000 313000 340
315000 314000 278
316000 315000 340
317000 316000 353
318000 317000 309
319000 318000 353
320000 319000 322
321000 320000 371
322000 321000 353
323000 322000 309
324000 323000 322
325000 324000 384
326000 325000 340
327000 326000 247
328000 327000 322
329000 328000 291
330000 329000 353
331000 330000 322
332000 331000 291
333000 332000 353
334000 333000 335
335000 334000 322
336000 335000 322
337000 336000 366
338000 337000 366
339000 338000 335
340000 339000 366
341000 340000 304
342000 341000 335
343000 342000 353
344000 343000 335
345000 344000 304
346000 345000 441
347000 346000 348
348000 347000 322
349000 348000 335
350000 349000 366
351000 350000 304
352000 351000 379
353000 352000 335
354000 353000 304
355000 354000 348
356000 355000 379
357000 356000 348
358000 357000 304
359000 358000 379
360000 359000 348
361000 360000 410
362000 361000 348
363000 362000 361
364000 363000 317
365000 364000 317
366000 365000 361
367000 366000 348
368000 367000 286
369000 368000 317
370000 369000 361
371000 370000 392
372000 371000 348
373000 372000 317
374000 373000 348
375000 374000 330
376000 375000 361
377000 376000 423
378000 377000 361
379000 378000 330
380000 379000 361
381000 380000 379
382000 381000 374
383000 382000 361
384000 383000 330
385000 384000 330
386000 385000 348
387000 386000 330
388000 387000 299
389000 388000 330
390000 389000 436
391000 390000 361
392000 391000 330
393000 392000 299
394000 393000 361
395000 394000 405
396000 395000 312
397000 396000 330
398000 397000 330
399000 398000 374
400000 399000 299
401000 400000 374
402000 401000 387
403000 402000 268
404000 403000 343
405000 404000 343
406000 405000 405
407000 406000 361
408000 407000 268
409000 408000 312
410000 409000 312
411000 410000 449
412000 411000 330
413000 412000 343
414000 413000 374
415000 414000 374
416000 415000 312
417000 416000 387
418000 417000 343
419000 418000 343
420000 419000 281
421000 420000 343
422000 421000 325
423000 422000 356
424000 423000 418
425000 424000 356
426000 425000 356
427000 426000 356
428000 427000 374
429000 428000 294
430000 429000 281
431000 430000 312
432000 431000 343
433000 432000 387
434000 433000 343
435000 434000 356
436000 435000 281
437000 436000 325
438000 437000 387
439000 438000 400
440000 439000 356
441000 440000 325
442000 441000 294
443000 442000 356
444000 443000 338
445000 444000 325
446000 445000 338
447000 446000 325
448000 447000 325
449000 448000 369
450000 449000 369
451000 450000 387
452000 451000 307
453000 452000 294
454000 453000 369
455000 454000 338
456000 455000 338
457000 456000 356
458000 457000 338
459000 458000 307
460000 459000 307
461000 460000 307
462000 461000 444
463000 462000 369
464000 463000 325
465000 464000 338
466000 465000 369
467000 466000 369
468000 467000 413
469000 468000 382
470000 469000 338
471000 470000 307
472000 471000 276
473000 472000 338
474000 473000 307
475000 474000 382
476000 475000 320
477000 476000 307
478000 477000 382
479000 478000 351
480000 479000 351
481000 480000 413
482000 481000 382
483000 482000 351
484000 483000 307
485000 484000 320
486000 485000 338
487000 486000 382
488000 487000 382
489000 488000 382
490000 489000 351
491000 490000 320
492000 491000 320
493000 492000 426
494000 493000 395
495000 494000 351
496000 495000 320
497000 496000 320
498000 497000 289
499000 498000 351
500000 499000 395
501000 500000 364
502000 501000 320
503000 502000 426
504000 503000 320
505000 504000 364
506000 505000 364
507000 506000 382
508000 507000 364
509000 508000 377
510000 509000 364
511000 510000 333
512000 511000 470
513000 512000 333
514000 513000 351
515000 514000 364
516000 515000 395
517000 516000 302
518000 517000 333
519000 518000 439
520000 519000 364
521000 520000 333
522000 521000 364
523000 522000 333
524000 523000 302
525000 524000 364
526000 525000 408
527000 526000 408
528000 527000 377
529000 528000 377
530000 529000 333
531000 530000 346
532000 531000 346
533000 532000 377
534000 533000 377
535000 534000 346
536000 535000 302
537000 536000 333
538000 537000 377
539000 538000 346
540000 539000 346
541000 540000 408
542000 541000 364
543000 542000 346
544000 543000 359
545000 544000 315
546000 545000 346
547000 546000 452
548000 547000 377
549000 548000 333
550000 549000 315
551000 550000 346
552000 551000 377
553000 552000 315
554000 553000 346
555000 554000 421
556000 555000 390
557000 556000 346
558000 557000 315
559000 558000 315
560000 559000 284
561000 560000 359
562000 561000 328
563000 562000 359
564000 563000 328
565000 564000 421
566000 565000 328
567000 566000 359
568000 567000 359
569000 568000 359
570000 569000 359
571000 570000 377
572000 571000 359
573000 572000 372
574000 573000 359
575000 574000 328
576000 575000 346
577000 576000 390
578000 577000 390
579000 578000 346
580000 579000 359
581000 580000 266
582000 581000 328
583000 582000 328
584000 583000 434
585000 584000 372
586000 585000 359
587000 586000 359
588000 587000 328
589000 588000 315
590000 589000 297
591000 590000 359
592000 591000 403
593000 592000 328
594000 593000 328
595000 594000 328
596000 595000 328
597000 596000 372
598000 597000 372
599000 598000 341
600000 599000 372
601000 600000 372
602000 601000 403
603000 602000 297
604000 603000 297
605000 604000 372
606000 605000 341
607000 606000 328
608000 607000 341
609000 608000 403
610000 609000 359
611000 610000 341
612000 611000 354
613000 612000 310
614000 613000 310
615000 614000 310
616000 615000 447
617000 616000 372
618000 617000 372
619000 618000 310
620000 619000 341
621000 620000 372
622000 621000 372
623000 622000 310
624000 623000 354
625000 624000 385
626000 625000 354
627000 626000 509
628000 627000 341
629000 628000 279
630000 629000 279
631000 630000 341
632000 631000 310
633000 632000 385
634000 633000 354
635000 634000 310
636000 635000 416
637000 636000 310
638000 637000 354
639000 638000 354
640000 639000 354
641000 640000 416
642000 641000 372
643000 642000 416
644000 643000 279
645000 644000 279
646000 645000 310
647000 646000 323
648000 647000 341
649000 648000 323
650000 649000 385
651000 650000 341
652000 651000 336
653000 652000 354
654000 653000 385
655000 654000 323
656000 655000 385
657000 656000 429
658000 657000 354
659000 658000 398
660000 659000 354
661000 660000 323
662000 661000 323
663000 662000 292
664000 663000 292
665000 664000 367
666000 665000 442
667000 666000 323
668000 667000 367
669000 668000 323
670000 669000 336
671000 670000 323
672000 671000 323
673000 672000 367
674000 673000 336
675000 674000 367
676000 675000 385
677000 676000 336
678000 677000 336
679000 678000 380
680000 679000 367
681000 680000 336
682000 681000 336
683000 682000 305
684000 683000 380
685000 684000 336
686000 685000 354
687000 686000 398
688000 687000 380
689000 688000 292
690000 689000 336
691000 690000 336
692000 691000 442
693000 692000 323
694000 693000 367
695000 694000 367
696000 695000 336
697000 696000 336
698000 697000 318
699000 698000 367
700000 699000 367
701000 700000 367
702000 701000 411
703000 702000 380
704000 703000 349
705000 704000 504
706000 705000 380
707000 706000 305
708000 707000 349
709000 708000 349
710000 709000 336
711000 710000 380
712000 711000 380
713000 712000 411
714000 713000 380
715000 714000 305
716000 715000 305
717000 716000 380
718000 717000 349
719000 718000 336
720000 719000 349
721000 720000 411
722000 721000 367
723000 722000 411
724000 723000 349
725000 724000 362
726000 725000 305
727000 726000 349
728000 727000 318
729000 728000 362
730000 729000 318
731000 730000 380
732000 731000 336
733000 732000 380
734000 733000 349
735000 734000 349
736000 735000 424
737000 736000 318
738000 737000 380
739000 738000 424
740000 739000 424
741000 740000 393
742000 741000 318
743000 742000 349
744000 743000 318
745000 744000 318
746000 745000 349
747000 746000 287
748000 747000 362
749000 748000 318
750000 749000 393
751000 750000 362
752000 751000 331
753000 752000 318
754000 753000 424
755000 754000 318
756000 755000 362
757000 756000 362
758000 757000 331
759000 758000 362
760000 759000 362
761000 760000 380
762000 761000 362
763000 762000 331
764000 763000 375
765000 764000 362
766000 765000 331
767000 766000 331
768000 767000 468
769000 768000 331
770000 769000 393
771000 770000 349
772000 771000 344
773000 772000 393
774000 773000 362
775000 774000 331
776000 775000 437
777000 776000 331
778000 777000 393
779000 778000 437
780000 779000 362
781000 780000 344
782000 781000 362
783000 782000 331
784000 783000 331
785000 784000 313
786000 785000 375
787000 786000 300
788000 787000 362
789000 788000 406
790000 789000 406
791000 790000 375
792000 791000 344
793000 792000 437
794000 793000 375
795000 794000 331
796000 795000 331
797000 796000 468
798000 797000 344
799000 798000 300
800000 799000 375
801000 800000 375
802000 801000 406
803000 802000 388
804000 803000 300
805000 804000 331
806000 805000 375
807000 806000 344
808000 807000 406
809000 808000 331
810000 809000 344
811000 810000 406
812000 811000 287
813000 812000 362
814000 813000 375
815000 814000 313
816000 815000 357
817000 816000 344
818000 817000 344
819000 818000 450
820000 819000 357
821000 820000 450
822000 821000 375
823000 822000 344
824000 823000 375
825000 824000 326
826000 825000 344
827000 826000 313
828000 827000 419
829000 828000 313
830000 829000 375
831000 830000 344
832000 831000 419
833000 832000 388
834000 833000 357
835000 834000 344
836000 835000 313
837000 836000 344
838000 837000 525
839000 838000 344
840000 839000 388
841000 840000 357
842000 841000 313
843000 842000 388
844000 843000 331
845000 844000 357
846000 845000 401
847000 846000 313
848000 847000 419
849000 848000 313
850000 849000 357
851000 850000 357
852000 851000 357
853000 852000 326
854000 853000 357
855000 854000 419
856000 855000 388
857000 856000 375
858000 857000 357
859000 858000 370
860000 859000 313
861000 860000 357
862000 861000 326
863000 862000 326
864000 863000 344
865000 864000 326
866000 865000 388
867000 866000 326
868000 867000 344
869000 868000 357
870000 869000 388
871000 870000 326
872000 871000 432
873000 872000 326
874000 873000 326
875000 874000 388
876000 875000 432
877000 876000 370
878000 877000 401
879000 878000 326
880000 879000 357
881000 880000 326
882000 881000 326
883000 882000 313
884000 883000 370
885000 884000 295
886000 885000 370
887000 886000 445
888000 887000 401
889000 888000 295
890000 889000 370
891000 890000 339
892000 891000 326
893000 892000 295
894000 893000 326
895000 894000 370
896000 895000 326
897000 896000 370
898000 897000 339
899000 898000 370
900000 899000 295
901000 900000 401
902000 901000 401
903000 902000 383
904000 903000 295
905000 904000 383
906000 905000 295
907000 906000 445
908000 907000 326
909000 908000 370
910000 909000 326
911000 910000 476
912000 911000 383
913000 912000 401
914000 913000 357
915000 914000 370
916000 915000 339
917000 916000 339
918000 917000 383
919000 918000 339
920000 919000 432
921000 920000 339
922000 921000 339
923000 922000 445
924000 923000 308
925000 924000 370
926000 925000 339
927000 926000 370
928000 927000 476
929000 928000 383
930000 929000 339
931000 930000 370
932000 931000 308
933000 932000 370
934000 933000 370
935000 934000 414
936000 935000 414
937000 936000 383
938000 937000 352
939000 938000 445
940000 939000 507
941000 940000 383
942000 941000 339
943000 942000 339
944000 943000 352
945000 944000 383
946000 945000 352
947000 946000 383
948000 947000 383
949000 948000 383
950000 949000 352
951000 950000 414
952000 951000 383
953000 952000 414
954000 953000 414
955000 954000 383
956000 955000 339
957000 956000 352
958000 957000 352
959000 958000 321
960000 959000 352
961000 960000 414
962000 961000 352
963000 962000 383
964000 963000 414
965000 964000 352
966000 965000 321
967000 966000 365
968000 967000 308
969000 968000 321
970000 969000 352
971000 970000 458
972000 971000 352
973000 972000 321
974000 973000 383
975000 974000 383
976000 975000 339
977000 976000 383
978000 977000 334
979000 978000 383
980000 979000 334
981000 980000 427
982000 981000 321
983000 982000 383
984000 983000 383
985000 984000 352
986000 985000 427
987000 986000 352
988000 987000 396
989000 988000 321
990000 989000 352
991000 990000 321
992000 991000 321
993000 992000 352
994000 993000 290
995000 994000 365
996000 995000 365
997000 996000 365
998000 997000 440
999000 998000 396
