671121 785994 504
476600 486924 413
687839 197741 509
452297 115356 449
723032 20999 509
159108 770139 509
705686 507582 509
887502 662917 525
315234 223749 443
225667 487266 449
301395 281549 389
710096 798730 468
413288 146528 449
147505 599748 470
51780 141125 354
474992 296098 449
821758 775341 468
717678 959147 525
288382 743534 509
80261 867850 525
897621 130504 525
907348 580964 525
33226 164360 383
218492 26685 386
91493 716929 509
578876 268150 470
785384 296717 509
501122 305905 449
979765 285327 525
270337 224380 443
743537 72757 509
825047 342854 509
982019 939910 458
21245 878389 525
686502 220666 509
278473 540667 470
757562 643136 504
424279 263953 449
4727 730996 509
898654 804886 525
770442 770362 238
443244 43127 449
886178 264533 525
714731 815246 468
475687 181186 449
900277 334126 525
709700 688528 504
278096 747991 509
260473 808232 509
452242 392259 449
883340 837750 525
18827 458577 449
918895 237230 525
861995 677400 525
188381 269417 443
610144 572583 434
332118 504084 449
345839 314880 384
801392 314047 509
720475 988633 525
521899 788944 509
518579 48828 470
475887 777572 509
118618 395404 443
290607 485327 449
546006 946586 525
932303 54487 525
732418 252412 509
495832 836334 509
585190 581100 434
545919 538602 408
758149 477973 509
767415 180145 509
589286 356515 470
367211 411760 449
225001 543555 470
583271 653068 509
295222 824473 509
594523 420321 470
499691 166848 449
722453 390566 509
572261 634490 509
896472 855376 445
809507 862539 525
753850 430955 509
734114 819862 468
280701 389698 441
932353 543945 525
993021 109819 525
472093 871441 525
948785 562804 525
158092 618917 470
292831 977750 525
539885 738507 509
82084 606234 470
375284 119065 443
435595 745208 509
886832 521295 525
737116 839878 525
264903 554438 470
894934 626939 525
3640 809745 509
940624 407967 525
184316 666518 509
292236 550414 470
786678 366600 509
746721 79632 509
134439 239814 443
829250 789234 468
571974 637159 509
788387 160314 509
480540 140369 449
109565 921961 525
868223 896609 445
633524 687656 442
984174 443760 525
831544 806726 450
141324 51845 354
110446 225683 386
499568 836525 509
257666 387083 441
440384 267749 449
952813 261555 525
162866 318465 443
417290 479388 444
562724 897185 525
90623 527225 470
608740 884242 525
68574 608875 470
650217 193850 509
675739 749728 504
123038 731618 509
17126 365155 443
913444 624479 525
613808 526696 452
919995 98436 525
339791 46951 443
931188 918596 476
687847 381451 509
378015 262650 441
616597 144676 470
466146 919064 525
82735 717247 509
634543 21971 509
795091 578912 509
362574 866355 525
224929 452716 449
257442 655911 509
969082 993899 458
390652 39308 443
211343 727977 509
89087 390149 443
417153 431235 418
703144 422915 509
224092 337101 443
882472 617075 525
757623 279436 509
54242 906886 525
586639 391267 470
78018 921356 525
287577 314856 389
253291 549024 470
659915 165526 509
296336 207296 443
324497 712571 509
567712 577696 390
526646 79561 470
155284 543551 470
897279 348194 525
706368 362011 509
419620 530291 470
683615 116996 509
856056 853495 419
237487 724081 509
150125 103933 375
507516 209962 449
677665 642631 442
297919 53553 443
580996 850919 525
196828 312253 443
500914 78145 449
570848 75084 470
922767 494853 525
98563 542100 470
738159 105949 509
275771 397262 441
347463 19502 443
338113 70894 443
135508 413438 449
246920 9115 443
333985 713497 509
200216 262099 443
833376 868816 525
623441 12427 470
320027 89976 443
656706 20660 509
88045 260434 443
839688 819873 525
489184 423684 444
150089 585556 470
